{
  "files": {
    "main.css": "/static/css/main.36307bf0.css",
    "main.js": "/static/js/main.f04a8e46.js",
    "static/js/377.287e14b4.chunk.js": "/static/js/377.287e14b4.chunk.js",
    "static/media/fa-duotone-900.svg": "/static/media/fa-duotone-900.ede63fcfcbbe425b1278.svg",
    "static/media/fa-light-300.svg": "/static/media/fa-light-300.8648ee1cba9cf74ff7ed.svg",
    "static/media/fa-regular-400.svg": "/static/media/fa-regular-400.26cd509edd295725659c.svg",
    "static/media/fa-solid-900.svg": "/static/media/fa-solid-900.394bf051ac79e160f682.svg",
    "static/media/fa-brands-400.svg": "/static/media/fa-brands-400.1c61791abf9e9ce7e48f.svg",
    "static/media/fa-duotone-900.eot": "/static/media/fa-duotone-900.4bd9f123e62d823eba06.eot",
    "static/media/fa-duotone-900.ttf": "/static/media/fa-duotone-900.cb751065ae9ac2915ca3.ttf",
    "static/media/fa-light-300.eot": "/static/media/fa-light-300.af237b233f468bc688b9.eot",
    "static/media/fa-light-300.ttf": "/static/media/fa-light-300.102dcd2113828918d901.ttf",
    "static/media/fa-regular-400.eot": "/static/media/fa-regular-400.6de71e8b1f2e7cc46eaf.eot",
    "static/media/fa-regular-400.ttf": "/static/media/fa-regular-400.abc4686311fc6242c96f.ttf",
    "static/media/fa-solid-900.eot": "/static/media/fa-solid-900.abe688eccd9d8a59af1e.eot",
    "static/media/fa-solid-900.ttf": "/static/media/fa-solid-900.302ff55483aa3a0051e3.ttf",
    "static/media/fa-duotone-900.woff": "/static/media/fa-duotone-900.56c28157e969556945ee.woff",
    "static/media/fa-light-300.woff": "/static/media/fa-light-300.44931d2b26ba16405d9d.woff",
    "static/media/fa-regular-400.woff": "/static/media/fa-regular-400.a15a569f9274c3c067e0.woff",
    "static/media/fa-duotone-900.woff2": "/static/media/fa-duotone-900.a4a71b0d384ff8966c7a.woff2",
    "static/media/fa-light-300.woff2": "/static/media/fa-light-300.6265ad13b6a2275b7efc.woff2",
    "static/media/fa-solid-900.woff": "/static/media/fa-solid-900.33484065de46cbd7642f.woff",
    "static/media/fa-regular-400.woff2": "/static/media/fa-regular-400.31e6727562147589b4d7.woff2",
    "static/media/fa-brands-400.eot": "/static/media/fa-brands-400.2563b3e3a6a903e85f8a.eot",
    "static/media/fa-brands-400.ttf": "/static/media/fa-brands-400.f891686c02d561760ea0.ttf",
    "static/media/fa-solid-900.woff2": "/static/media/fa-solid-900.648f6c54acb5522e1db2.woff2",
    "static/media/fa-brands-400.woff": "/static/media/fa-brands-400.59167fb59d703ba519a0.woff",
    "static/media/fa-brands-400.woff2": "/static/media/fa-brands-400.3533db5f6d4bb62ec2d5.woff2",
    "service-worker.js": "/service-worker.js",
    "static/media/marker.svg": "/static/media/marker.80ca5ffd69ea621cb1b6508d57e5f2ad.svg",
    "index.html": "/index.html",
    "main.36307bf0.css.map": "/static/css/main.36307bf0.css.map",
    "main.f04a8e46.js.map": "/static/js/main.f04a8e46.js.map",
    "377.287e14b4.chunk.js.map": "/static/js/377.287e14b4.chunk.js.map"
  },
  "entrypoints": [
    "static/css/main.36307bf0.css",
    "static/js/main.f04a8e46.js"
  ]
}